C,,,S1,,THE PRINCIPAL,PERTH MODERN SCHOOL,90 ROBERTS ROAD,,,,SUBIACO,WA,6008,AU,,,,Please deliver during business hours,Y,,,Y,,4042,Y,,Y
A,190,,,,1,,N,N,,,,,,,,,,,,,,,,,,,
C,,,S1,,THE PRINCIPAL,WA COLLEGE OF AGRICULTURE - CUNDERDIN,267 CUNDERDIN-WYALKATCHEM ROAD,,,,CUNDERDIN,WA,6407,AU,,,,Please deliver during business hours,Y,,,Y,,4201,Y,,Y
A,20,,,,1,,N,N,,,,,,,,,,,,,,,,,,,
C,,,S1,,TISC Recipient,Career Centre,LEVEL 7 - GPO Building - 3 Forrest Place,,,,PERTH,WA,6000,AU,,,,Please deliver during business hours,Y,,,Y,,,Y,,Y
A,50,,,,1,,N,N,,,,,,,,,,,,,,,,,,,
